{
   "results" : [
      {
         "address_components" : [
            {
               "long_name" : "32",
               "short_name" : "32",
               "types" : [ "street_number" ]
            },
            {
               "long_name" : "Satovriandou",
               "short_name" : "Satovriandou",
               "types" : [ "route" ]
            },
            {
               "long_name" : "Athina",
               "short_name" : "Athina",
               "types" : [ "locality", "political" ]
            },
            {
               "long_name" : "Athina",
               "short_name" : "Athina",
               "types" : [ "administrative_area_level_5", "political" ]
            },
            {
               "long_name" : "Athens",
               "short_name" : "Athens",
               "types" : [ "administrative_area_level_4", "political" ]
            },
            {
               "long_name" : "Kentrikos Tomeas Athinon",
               "short_name" : "Kentrikos Tomeas Athinon",
               "types" : [ "administrative_area_level_3", "political" ]
            },
            {
               "long_name" : "Greece",
               "short_name" : "GR",
               "types" : [ "country", "political" ]
            },
            {
               "long_name" : "104 32",
               "short_name" : "104 32",
               "types" : [ "postal_code" ]
            }
         ],
         "formatted_address" : "Satovriandou 32, Athina 104 32, Greece",
         "geometry" : {
            "location" : {
               "lat" : 37.9853761,
               "lng" : 23.7263506
            },
            "location_type" : "ROOFTOP",
            "viewport" : {
               "northeast" : {
                  "lat" : 37.9867250802915,
                  "lng" : 23.7276995802915
               },
               "southwest" : {
                  "lat" : 37.9840271197085,
                  "lng" : 23.7250016197085
               }
            }
         },
         "place_id" : "ChIJqU2_wS-9oRQRpMHQEmFXlFw",
         "types" : [ "street_address" ]
      }
   ],
   "status" : "OK"
}
