{
   "results" : [
      {
         "address_components" : [
            {
               "long_name" : "Tokyo",
               "short_name" : "Tokyo",
               "types" : [ "administrative_area_level_1", "political" ]
            },
            {
               "long_name" : "Japan",
               "short_name" : "JP",
               "types" : [ "country", "political" ]
            }
         ],
         "formatted_address" : "Tokyo, Japan",
         "geometry" : {
            "bounds" : {
               "northeast" : {
                  "lat" : 35.8986469,
                  "lng" : 153.9875216
               },
               "southwest" : {
                  "lat" : 24.2242344,
                  "lng" : 138.9427579
               }
            },
            "location" : {
               "lat" : 35.6894875,
               "lng" : 139.6917064
            },
            "location_type" : "APPROXIMATE",
            "viewport" : {
               "northeast" : {
                  "lat" : 35.817813,
                  "lng" : 139.910202
               },
               "southwest" : {
                  "lat" : 35.528873,
                  "lng" : 139.510574
               }
            }
         },
         "place_id" : "ChIJ51cu8IcbXWARiRtXIothAS4",
         "types" : [ "administrative_area_level_1", "political" ]
      }
   ],
   "status" : "OK"
}
