{
   "results" : [
      {
         "address_components" : [
            {
               "long_name" : "El Barcelonès",
               "short_name" : "El Barcelonès",
               "types" : [ "administrative_area_level_3", "political" ]
            },
            {
               "long_name" : "Barcelona",
               "short_name" : "Barcelona",
               "types" : [ "administrative_area_level_2", "political" ]
            },
            {
               "long_name" : "Catalunya",
               "short_name" : "CT",
               "types" : [ "administrative_area_level_1", "political" ]
            },
            {
               "long_name" : "Spain",
               "short_name" : "ES",
               "types" : [ "country", "political" ]
            }
         ],
         "formatted_address" : "El Barcelonès, Barcelona, Spain",
         "geometry" : {
            "bounds" : {
               "northeast" : {
                  "lat" : 41.4929026,
                  "lng" : 2.2705361
               },
               "southwest" : {
                  "lat" : 41.3200453,
                  "lng" : 2.0529518
               }
            },
            "location" : {
               "lat" : 41.4016668,
               "lng" : 2.1253854
            },
            "location_type" : "APPROXIMATE",
            "viewport" : {
               "northeast" : {
                  "lat" : 41.4929026,
                  "lng" : 2.2705361
               },
               "southwest" : {
                  "lat" : 41.3200453,
                  "lng" : 2.0529518
               }
            }
         },
         "place_id" : "ChIJcQYdL7mipBIRQ2KtcuxW2Hg",
         "types" : [ "administrative_area_level_3", "political" ]
      }
   ],
   "status" : "OK"
}
